@startuml


        class fr.ngms.cartopoc.models.resquests.CategoryCreationRequest {
            - description : String
            - name : String
            + CategoryCreationRequest()
            + CategoryCreationRequest()
            + errorMessage()
            + getDescription()
            + getName()
            + setDescription()
            + setName()
        }
        class fr.ngms.cartopoc.models.resquests.LayerInformationRequest {
            - description : String
            - icon : String
            - name : String
            - properties : List<String>
            + errorMessage()
            + getDescription()
            + getIcon()
            + getName()
            + getProperties()
            + setDescription()
            + setIcon()
            + setName()
            + setProperties()
            + toString()
        }
        class fr.ngms.cartopoc.models.resquests.POIImportRequest {
            - file64Encoded : String
            + POIImportRequest()
            + getFile64Encoded()
            + setFile64Encoded()
        }
        class fr.ngms.cartopoc.models.resquests.POIInsertionRequest {
            - pois : List<POIRequest>
            + POIInsertionRequest()
            + getPois()
            + setPois()
        }
        class fr.ngms.cartopoc.models.resquests.POIInsertionRequest.POIRequest {
            - name : String
            - properties : Map<String, Object>
            - x : double
            - y : double
            + getName()
            + getProperties()
            + getX()
            + getY()
            + setName()
            + setProperties()
            + setX()
            + setY()
            + toString()
        }

        class fr.ngms.cartopoc.models.user.UserInformationRequest {
            - email : String
            - firstname : String
            - lastname : String
            - password : String
            - role : String
            + UserInformationRequest()
            + getEmail()
            + getFirstname()
            + getLastname()
            + getPassword()
            + getRole()
            + setEmail()
            + setFirstname()
            + setLastname()
            + setPassword()
            + setRole()
            + toErrorMessage()
        }

        class fr.ngms.cartopoc.models.user.UserInformation {
            - email : String
            - firstname : String
            - id : long
            - lastname : String
            - password : String
            - role : String
            + UserInformation()
            {static} + fromEntity()
            + getEmail()
            + getFirstname()
            + getId()
            + getLastname()
            + getPassword()
            + getRole()
        }


  fr.ngms.cartopoc.models.resquests.POIInsertionRequest +-down- fr.ngms.cartopoc.models.resquests.POIInsertionRequest.POIRequest



@enduml
