<?xml version="1.0" encoding="UTF-8" standalone="no"?>
<!DOCTYPE svg PUBLIC "-//W3C//DTD SVG 1.1//EN"
 "http://www.w3.org/Graphics/SVG/1.1/DTD/svg11.dtd">
<!-- Generated by graphviz version 2.46.0 (20210119.1425)
 -->
<!-- Title: dependencies Pages: 1 -->
<svg width="976pt" height="211pt"
 viewBox="0.00 0.00 976.00 211.00" xmlns="http://www.w3.org/2000/svg" xmlns:xlink="http://www.w3.org/1999/xlink">
<g id="graph0" class="graph" transform="scale(1 1) rotate(0) translate(4 207)">
<title>dependencies</title>
<polygon fill="white" stroke="transparent" points="-4,4 -4,-207 972,-207 972,4 -4,4"/>
<text text-anchor="start" x="463.01" y="-42.4" font-family="sans-serif" font-weight="bold" font-size="14.00">Legend</text>
<polygon fill="#ffffb3" stroke="transparent" points="250,-10 250,-30 270,-30 270,-10 250,-10"/>
<text text-anchor="start" x="273.63" y="-15.4" font-family="sans-serif" font-size="14.00"> &#160;Declarations</text>
<polygon fill="#8dd3c7" stroke="transparent" points="363,-10 363,-30 383,-30 383,-10 363,-10"/>
<text text-anchor="start" x="386.73" y="-15.4" font-family="sans-serif" font-size="14.00"> &#160;Module</text>
<polygon fill="#80b1d3" stroke="transparent" points="449,-10 449,-30 469,-30 469,-10 449,-10"/>
<text text-anchor="start" x="472.78" y="-15.4" font-family="sans-serif" font-size="14.00"> &#160;Bootstrap</text>
<polygon fill="#fdb462" stroke="transparent" points="546,-10 546,-30 566,-30 566,-10 546,-10"/>
<text text-anchor="start" x="569.67" y="-15.4" font-family="sans-serif" font-size="14.00"> &#160;Providers</text>
<polygon fill="#fb8072" stroke="transparent" points="642,-10 642,-30 662,-30 662,-10 642,-10"/>
<text text-anchor="start" x="665.73" y="-15.4" font-family="sans-serif" font-size="14.00"> &#160;Exports</text>
<g id="clust1" class="cluster">
<title>cluster_UserAccountModule</title>
<polygon fill="none" stroke="black" stroke-dasharray="1,5" points="8,-70 8,-195 960,-195 960,-70 8,-70"/>
</g>
<g id="clust2" class="cluster">
<title>cluster_UserAccountModule_declarations</title>
<polygon fill="none" stroke="black" points="168,-78 168,-130 952,-130 952,-78 168,-78"/>
</g>
<g id="clust7" class="cluster">
<title>cluster_UserAccountModule_imports</title>
<polygon fill="none" stroke="black" points="16,-78 16,-130 160,-130 160,-78 16,-78"/>
</g>
<!-- AccounLoginComponent -->
<g id="node1" class="node">
<title>AccounLoginComponent</title>
<polygon fill="#ffffb3" stroke="black" points="944.31,-122 785.69,-122 785.69,-86 944.31,-86 944.31,-122"/>
<text text-anchor="middle" x="865" y="-99.8" font-family="Times,serif" font-size="14.00">AccounLoginComponent</text>
</g>
<!-- UserAccountModule -->
<g id="node5" class="node">
<title>UserAccountModule</title>
<polygon fill="#8dd3c7" stroke="black" points="499.9,-187 496.9,-191 475.9,-191 472.9,-187 366.1,-187 366.1,-151 499.9,-151 499.9,-187"/>
<text text-anchor="middle" x="433" y="-164.8" font-family="Times,serif" font-size="14.00">UserAccountModule</text>
</g>
<!-- AccounLoginComponent&#45;&gt;UserAccountModule -->
<g id="edge1" class="edge">
<title>AccounLoginComponent&#45;&gt;UserAccountModule</title>
<path fill="none" stroke="black" d="M865,-122.28C865,-143.32 865,-175 865,-175 865,-175 510.03,-175 510.03,-175"/>
<polygon fill="black" stroke="black" points="510.03,-171.5 500.03,-175 510.03,-178.5 510.03,-171.5"/>
</g>
<!-- AccountAuthentificationComponent -->
<g id="node2" class="node">
<title>AccountAuthentificationComponent</title>
<polygon fill="#ffffb3" stroke="black" points="768.01,-122 547.99,-122 547.99,-86 768.01,-86 768.01,-122"/>
<text text-anchor="middle" x="658" y="-99.8" font-family="Times,serif" font-size="14.00">AccountAuthentificationComponent</text>
</g>
<!-- AccountAuthentificationComponent&#45;&gt;UserAccountModule -->
<g id="edge2" class="edge">
<title>AccountAuthentificationComponent&#45;&gt;UserAccountModule</title>
<path fill="none" stroke="black" d="M658,-122.02C658,-139.37 658,-163 658,-163 658,-163 509.9,-163 509.9,-163"/>
<polygon fill="black" stroke="black" points="509.9,-159.5 499.9,-163 509.9,-166.5 509.9,-159.5"/>
</g>
<!-- SearchUserAccountComponent -->
<g id="node3" class="node">
<title>SearchUserAccountComponent</title>
<polygon fill="#ffffb3" stroke="black" points="529.77,-122 336.23,-122 336.23,-86 529.77,-86 529.77,-122"/>
<text text-anchor="middle" x="433" y="-99.8" font-family="Times,serif" font-size="14.00">SearchUserAccountComponent</text>
</g>
<!-- SearchUserAccountComponent&#45;&gt;UserAccountModule -->
<g id="edge3" class="edge">
<title>SearchUserAccountComponent&#45;&gt;UserAccountModule</title>
<path fill="none" stroke="black" d="M433,-122.11C433,-122.11 433,-140.99 433,-140.99"/>
<polygon fill="black" stroke="black" points="429.5,-140.99 433,-150.99 436.5,-140.99 429.5,-140.99"/>
</g>
<!-- UserDetailComponent -->
<g id="node4" class="node">
<title>UserDetailComponent</title>
<polygon fill="#ffffb3" stroke="black" points="317.97,-122 176.03,-122 176.03,-86 317.97,-86 317.97,-122"/>
<text text-anchor="middle" x="247" y="-99.8" font-family="Times,serif" font-size="14.00">UserDetailComponent</text>
</g>
<!-- UserDetailComponent&#45;&gt;UserAccountModule -->
<g id="edge4" class="edge">
<title>UserDetailComponent&#45;&gt;UserAccountModule</title>
<path fill="none" stroke="black" d="M247,-122.02C247,-139.37 247,-163 247,-163 247,-163 356.11,-163 356.11,-163"/>
<polygon fill="black" stroke="black" points="356.11,-166.5 366.11,-163 356.11,-159.5 356.11,-166.5"/>
</g>
<!-- AppRoutingModule -->
<g id="node6" class="node">
<title>AppRoutingModule</title>
<polygon fill="#8dd3c7" stroke="black" points="152.27,-122 149.27,-126 128.27,-126 125.27,-122 23.73,-122 23.73,-86 152.27,-86 152.27,-122"/>
<text text-anchor="middle" x="88" y="-99.8" font-family="Times,serif" font-size="14.00">AppRoutingModule</text>
</g>
<!-- AppRoutingModule&#45;&gt;UserAccountModule -->
<g id="edge5" class="edge">
<title>AppRoutingModule&#45;&gt;UserAccountModule</title>
<path fill="none" stroke="black" d="M88,-122.28C88,-143.32 88,-175 88,-175 88,-175 356.07,-175 356.07,-175"/>
<polygon fill="black" stroke="black" points="356.07,-178.5 366.07,-175 356.07,-171.5 356.07,-178.5"/>
</g>
</g>
</svg>
