<?xml version="1.0" encoding="UTF-8" standalone="no"?>
<!DOCTYPE svg PUBLIC "-//W3C//DTD SVG 1.1//EN"
 "http://www.w3.org/Graphics/SVG/1.1/DTD/svg11.dtd">
<!-- Generated by graphviz version 2.46.0 (20210119.1425)
 -->
<!-- Title: dependencies Pages: 1 -->
<svg width="523pt" height="211pt"
 viewBox="0.00 0.00 523.00 211.00" xmlns="http://www.w3.org/2000/svg" xmlns:xlink="http://www.w3.org/1999/xlink">
<g id="graph0" class="graph" transform="scale(1 1) rotate(0) translate(4 207)">
<title>dependencies</title>
<polygon fill="white" stroke="transparent" points="-4,4 -4,-207 519,-207 519,4 -4,4"/>
<text text-anchor="start" x="236.51" y="-42.4" font-family="sans-serif" font-weight="bold" font-size="14.00">Legend</text>
<polygon fill="#ffffb3" stroke="transparent" points="23.5,-10 23.5,-30 43.5,-30 43.5,-10 23.5,-10"/>
<text text-anchor="start" x="47.13" y="-15.4" font-family="sans-serif" font-size="14.00"> &#160;Declarations</text>
<polygon fill="#8dd3c7" stroke="transparent" points="136.5,-10 136.5,-30 156.5,-30 156.5,-10 136.5,-10"/>
<text text-anchor="start" x="160.23" y="-15.4" font-family="sans-serif" font-size="14.00"> &#160;Module</text>
<polygon fill="#80b1d3" stroke="transparent" points="222.5,-10 222.5,-30 242.5,-30 242.5,-10 222.5,-10"/>
<text text-anchor="start" x="246.28" y="-15.4" font-family="sans-serif" font-size="14.00"> &#160;Bootstrap</text>
<polygon fill="#fdb462" stroke="transparent" points="319.5,-10 319.5,-30 339.5,-30 339.5,-10 319.5,-10"/>
<text text-anchor="start" x="343.17" y="-15.4" font-family="sans-serif" font-size="14.00"> &#160;Providers</text>
<polygon fill="#fb8072" stroke="transparent" points="415.5,-10 415.5,-30 435.5,-30 435.5,-10 415.5,-10"/>
<text text-anchor="start" x="439.23" y="-15.4" font-family="sans-serif" font-size="14.00"> &#160;Exports</text>
<g id="clust1" class="cluster">
<title>cluster_GeocodingModule</title>
<polygon fill="none" stroke="black" stroke-dasharray="1,5" points="8,-70 8,-195 507,-195 507,-70 8,-70"/>
</g>
<g id="clust7" class="cluster">
<title>cluster_GeocodingModule_providers</title>
<polygon fill="none" stroke="black" points="182,-78 182,-130 499,-130 499,-78 182,-78"/>
</g>
<g id="clust2" class="cluster">
<title>cluster_GeocodingModule_declarations</title>
<polygon fill="none" stroke="black" points="16,-78 16,-130 174,-130 174,-78 16,-78"/>
</g>
<!-- GeocodingComponent -->
<g id="node1" class="node">
<title>GeocodingComponent</title>
<polygon fill="#ffffb3" stroke="black" points="166.26,-122 23.74,-122 23.74,-86 166.26,-86 166.26,-122"/>
<text text-anchor="middle" x="95" y="-99.8" font-family="Times,serif" font-size="14.00">GeocodingComponent</text>
</g>
<!-- GeocodingModule -->
<g id="node2" class="node">
<title>GeocodingModule</title>
<polygon fill="#8dd3c7" stroke="black" points="309.48,-187 306.48,-191 285.48,-191 282.48,-187 188.52,-187 188.52,-151 309.48,-151 309.48,-187"/>
<text text-anchor="middle" x="249" y="-164.8" font-family="Times,serif" font-size="14.00">GeocodingModule</text>
</g>
<!-- GeocodingComponent&#45;&gt;GeocodingModule -->
<g id="edge1" class="edge">
<title>GeocodingComponent&#45;&gt;GeocodingModule</title>
<path fill="none" stroke="black" d="M95,-122.11C95,-141.34 95,-169 95,-169 95,-169 178.14,-169 178.14,-169"/>
<polygon fill="black" stroke="black" points="178.14,-172.5 188.14,-169 178.14,-165.5 178.14,-172.5"/>
</g>
<!-- GeocodingService -->
<g id="node3" class="node">
<title>GeocodingService</title>
<ellipse fill="#fdb462" stroke="black" cx="409" cy="-104" rx="82.23" ry="18"/>
<text text-anchor="middle" x="409" y="-99.8" font-family="Times,serif" font-size="14.00">GeocodingService</text>
</g>
<!-- GeocodingService&#45;&gt;GeocodingModule -->
<g id="edge2" class="edge">
<title>GeocodingService&#45;&gt;GeocodingModule</title>
<path fill="none" stroke="black" d="M409,-122.11C409,-141.34 409,-169 409,-169 409,-169 319.49,-169 319.49,-169"/>
<polygon fill="black" stroke="black" points="319.49,-165.5 309.49,-169 319.49,-172.5 319.49,-165.5"/>
</g>
<!-- StateService -->
<g id="node4" class="node">
<title>StateService</title>
<ellipse fill="#fdb462" stroke="black" cx="249" cy="-104" rx="59.1" ry="18"/>
<text text-anchor="middle" x="249" y="-99.8" font-family="Times,serif" font-size="14.00">StateService</text>
</g>
<!-- StateService&#45;&gt;GeocodingModule -->
<g id="edge3" class="edge">
<title>StateService&#45;&gt;GeocodingModule</title>
<path fill="none" stroke="black" d="M249,-122.11C249,-122.11 249,-140.99 249,-140.99"/>
<polygon fill="black" stroke="black" points="245.5,-140.99 249,-150.99 252.5,-140.99 245.5,-140.99"/>
</g>
</g>
</svg>
